module d25

go 1.19

require (
	github.com/onsi/ginkgo v1.16.5
	github.com/onsi/gomega v1.26.0
)

require (
	github.com/fsnotify/fsnotify v1.4.9 // indirect
	github.com/google/go-cmp v0.5.9 // indirect
	github.com/nxadm/tail v1.4.8 // indirect
	github.com/onsi/ginkgo/v2 v2.7.1 // indirect
	golang.org/x/net v0.5.0 // indirect
	golang.org/x/sys v0.4.0 // indirect
	golang.org/x/text v0.6.0 // indirect
	gopkg.in/tomb.v1 v1.0.0-20141024135613-dd632973f1e7 // indirect
	gopkg.in/yaml.v3 v3.0.1 // indirect
)
